<?xml version="1.0" encoding="UTF-8" standalone="no"?>
<!-- Created with Inkscape (http://www.inkscape.org/) -->

<svg
   xmlns:dc="http://purl.org/dc/elements/1.1/"
   xmlns:cc="http://creativecommons.org/ns#"
   xmlns:rdf="http://www.w3.org/1999/02/22-rdf-syntax-ns#"
   xmlns:svg="http://www.w3.org/2000/svg"
   xmlns="http://www.w3.org/2000/svg"
   xmlns:sodipodi="http://sodipodi.sourceforge.net/DTD/sodipodi-0.dtd"
   xmlns:inkscape="http://www.inkscape.org/namespaces/inkscape"
   width="45.09375"
   height="45.09375"
   id="svg3853"
   version="1.1"
   inkscape:version="0.48.5 r10040"
   sodipodi:docname="shade-toggled-inactive.svg">
  <defs
     id="defs3855" />
  <sodipodi:namedview
     id="base"
     pagecolor="#ffffff"
     bordercolor="#666666"
     borderopacity="1.0"
     inkscape:pageopacity="0.0"
     inkscape:pageshadow="2"
     inkscape:zoom="5.2444444"
     inkscape:cx="22.557"
     inkscape:cy="22.254733"
     inkscape:document-units="px"
     inkscape:current-layer="layer1"
     showgrid="false"
     fit-margin-top="0"
     fit-margin-left="0"
     fit-margin-right="0"
     fit-margin-bottom="0"
     inkscape:window-width="655"
     inkscape:window-height="432"
     inkscape:window-x="0"
     inkscape:window-y="39"
     inkscape:window-maximized="0" />
  <metadata
     id="metadata3858">
    <rdf:RDF>
      <cc:Work
         rdf:about="">
        <dc:format>image/svg+xml</dc:format>
        <dc:type
           rdf:resource="http://purl.org/dc/dcmitype/StillImage" />
        <dc:title></dc:title>
      </cc:Work>
    </rdf:RDF>
  </metadata>
  <g
     inkscape:label="Layer 1"
     inkscape:groupmode="layer"
     id="layer1"
     transform="translate(-206.01443,-475.52347)">
    <path
       inkscape:connector-curvature="0"
       style="fill:#c0c0c0;fill-opacity:1;stroke:#fefefe;stroke-width:0;stroke-miterlimit:4;stroke-opacity:1;stroke-dasharray:none;display:inline"
       d="m 228.51443,475.61723 c -12.43,0 -22.5,10.076 -22.5,22.497 0,12.432 10.07,22.503 22.5,22.503 12.431,0 22.5,-10.071 22.5,-22.503 0,-12.421 -10.07,-22.497 -22.5,-22.497 z"
       id="path3804" />
    <path
       inkscape:connector-curvature="0"
       style="fill:#5a5a5a;fill-opacity:1"
       d="m 238.86582,504.41134 c -0.62601,0.624 -1.44699,0.939 -2.27101,0.939 -0.821,0 -1.64499,-0.315 -2.27098,-0.939 l -5.84002,-5.833 -5.65698,5.802 c -0.63,0.645 -1.464,0.967 -2.3,0.967 -0.808,0 -1.62,-0.305 -2.246,-0.914 -1.266,-1.238 -1.295,-3.271 -0.056,-4.546 l 7.929,-8.126 c 0.002,0 0.002,0 0.003,0 0.01,-0.011 0.015,-0.021 0.022,-0.028 0.116,-0.115 0.245,-0.208 0.371,-0.302 0.039,-0.028 0.071,-0.064 0.111,-0.093 0.114,-0.075 0.24,-0.133 0.36,-0.194 0.068,-0.035 0.131,-0.078 0.2,-0.107 0.1,-0.039 0.20298,-0.064 0.30599,-0.093 0.099,-0.032 0.191,-0.068 0.292,-0.09 0.083,-0.018 0.16899,-0.018 0.25099,-0.028 0.122,-0.015 0.244,-0.033 0.366,-0.036 0.071,0 0.147,0.014 0.219,0.021 0.13302,0.007 0.266,0.011 0.39502,0.036 0.075,0.014 0.14598,0.043 0.22298,0.064 0.123,0.035 0.251,0.061 0.373,0.111 0.082,0.032 0.161,0.082 0.24302,0.121 0.10598,0.055 0.21598,0.104 0.31599,0.165 0.084,0.058 0.15899,0.13 0.238,0.194 0.086,0.064 0.17599,0.122 0.25499,0.201 0.005,0.003 0.009,0.011 0.013,0.014 0.007,0.004 0.011,0.008 0.014,0.011 l 8.142,8.13 c 1.255,1.259 1.259,3.292 -10e-4,4.553 z"
       id="path3882" />
  </g>
</svg>
